[gd_resource type="Curve3D" format=2]

[resource]
_data = {
"points": PoolVector3Array( 7.8069, 0, -5.0713, -4.706, 0, 3.057, 30.0971, 6.7693, 16.109, 6.0003, 0.5389, -0.4308, -3.617, -0.3249, 0.2597, 6.3544, 4.2823, 6.9655, 7.2407, -0.0521, 3.8661, -7.3204, 0.0527, -3.9087, -10.412, -2.5371, 13.8259, 5.9068, -0.6962, 10.2523, -2.9534, 0.3481, -5.1262, -23.4897, 1.2299, -7.4326, 2.4538, 0.2369, 3.6015, -2.4538, -0.2369, -3.6015, -32.1031, 1.0685, -20.607, -0.0561, -0.4907, 1.7457, 0.0556, 0.4863, -1.7299, -36.2022, 1.121, -28.7106, -3.814, -1.5188, -1.1361, 3.814, 1.5188, 1.1361, -29.552, 4.5801, -29.4625, -4.1894, -0.7458, -3.4473, 4.1894, 0.7458, 3.4473, -16.7011, 8.4284, -22.4487, -2.1175, 1.5114, -3.5211, 2.1175, -1.5114, 3.5211, -7.8779, 6.1749, -10.7663, -2.5946, -0.6515, 1.3242, 2.9329, 0.7365, -1.4969, -1.447, 3.7801, -6.2411, -12.1441, 0, 0, 3.036, 0, 0, 17.5834, 0.8799, -18.6548, -4.6634, 0.1905, -3.4091, 4.6634, -0.1905, 3.4091, 30.2296, 0.4102, -12.7438, -1.9028, -0.3553, -3.629, 3.8056, 0.7106, 7.258, 41.176, 0.4734, -1.3893, 7.8069, 0, -5.0713, -4.706, 0, 3.057, 30.0971, 6.7693, 16.109 ),
"tilts": PoolRealArray( 0, 0, 0, 0, 0, 0, 0, 0, 0, 0, 0, 0, 0, 0 )
}
