; Engine configuration file.
; It's best edited using the editor UI and not directly,
; since the parameters that go here are not all obvious.
;
; Format:
;   [section] ; section goes between []
;   param=value ; assign values to parameters

config_version=4

_global_script_classes=[ {
"base": "Resource",
"class": "ScenePaletteSettings",
"language": "GDScript",
"path": "res://3dscene/scene_palettes/ScenePaletteSettings.gd"
} ]
_global_script_class_icons={
"ScenePaletteSettings": ""
}

[application]

config/name="DOS-3D-Shader"
config/description="A shader which can give a 3D scene in Godot a distinctly retro mid-90s DOS look.  By Chainedlupine (David Grace).  GLES3 only."
run/main_scene="res://main.tscn"
config/icon="res://icon.png"

[display]

window/size/height=576

[rendering]

quality/intended_usage/framebuffer_allocation.mobile=2
quality/2d/use_pixel_snap=true
vram_compression/import_etc=true
vram_compression/import_etc2=false
quality/depth/hdr=false
environment/default_environment="res://default_env.tres"
