[gd_resource type="Resource" load_steps=2 format=2]

[ext_resource path="res://3dscene/scene_palettes/ScenePaletteSettings.gd" type="Script" id=1]

[resource]
script = ExtResource( 1 )
land_color = Color( 0, 0.952941, 1, 1 )
water_color = Color( 0.0313726, 0, 1, 1 )
sky_color = Color( 0.992157, 0, 1, 1 )
primary1_color = Color( 1, 1, 1, 1 )
primary2_color = Color( 0.827451, 0.827451, 0.827451, 1 )
primary3_color = Color( 0.72549, 0.72549, 0.72549, 1 )
primary4_color = Color( 0.847059, 0, 0.87451, 1 )
primary5_color = Color( 0.811765, 0.811765, 0.811765, 1 )
primary6_color = Color( 0.647059, 0, 0.662745, 1 )
